{
    "module": "midi",
    "depends": [
        "gui"
    ],
    "testDir": "../../config.tests",

    "report": [
    ],

    "summary": [
        {
            "section": "Qt Midi",
            "entries": [
            ]
        }

    ]
}
